Script_Operation
…
contamination_commune <- data %>%
  group_by(COMMU_LAB) %>%
  summarise(
    moyenne_chlordecone = mean(Taux_Chlordecone, na.rm = TRUE),
    nb_parcelles = n()
  )

contamination_commune %>%
  arrange(desc(moyenne_chlordecone))

## # A tibble: 36 × 3
##    COMMU_LAB       moyenne_chlordecone nb_parcelles
##    <chr>                         <dbl>        <int>
##  1 MORNE-ROUGE(LE)               2.80          3725
##  2 GRAND'RIVIERE                 1.84           125
##  3 MACOUBA                       1.70           698
##  4 BASSE-POINTE                  1.38           992
##  5 TRINITE(LA)                   0.684         1101
##  6 MARIGOT(LE)                   0.613          475
##  7 LORRAIN(LE)                   0.584         1763
##  8 SAINT-PIERRE                  0.561          339
##  9 GROS-MORNE                    0.547         2093
## 10 LAMENTIN(LE)                  0.442         1930
## # ℹ 26 more rows
…
